{
    "$schema": "https://schema.management.azure.com/schemas/2015-01-01/deploymentTemplate.json#",
    "contentVersion": "1.0",
    "parameters": {
        "workspaceName": {
            "type": "string",
            "metadata": {
                "Description": "Name of Log Analytics workspace"
            }
        },
        "workspaceregionId": {
            "type": "string",
            "metadata": {
                "Description": "Region of Log Analytics workspace"
            }
        },
        "actiongroup": {
            "type": "string",
            "metadata": {
                "Description": "List of action groups for alert actions separated by semicolon"
            }
        }
    },
    "variables": {
        "SolutionName": "MySolution",
        "SolutionVersion": "1.0",
        "SolutionPublisher": "Contoso",
        "ProductName": "SampleSolution",
        "LogAnalyticsApiVersion-Search": "2017-03-15-preview",
        "LogAnalyticsApiVersion-Solution": "2015-11-01-preview",
        "MySearch": {
            "displayName": "Error records by hour",
            "query": "MyRecord_CL | summarize AggregatedValue = avg(Rating_d) by Instance_s, bin(TimeGenerated, 60m)",
            "category": "Samples",
            "name": "Samples-Count of data"
        },
        "MyAlert": {
            "Name": "[toLower(concat('myalert-',uniqueString(resourceGroup().id, deployment().name)))]",
            "DisplayName": "My alert rule",
            "Description": "Sample alert. Fires when 3 error records found over hour interval.",
            "Severity": "critical",
            "ThresholdOperator": "gt",
            "ThresholdValue": 3,
            "Schedule": {
                "Name": "[toLower(concat('myschedule-',uniqueString(resourceGroup().id, deployment().name)))]",
                "Interval": 15,
                "TimeSpan": 60
            },
            "MetricsTrigger": {
                "TriggerCondition": "Consecutive",
                "Operator": "gt",
                "Value": 3
            },
            "ThrottleMinutes": 60,
            "AzNsNotification": {
                "GroupIds": [
                    "[parameters('actiongroup')]"
                ],
                "CustomEmailSubject": "Sample alert"
            }
        }
    },
    "resources": [
        {
            "name": "[concat(variables('SolutionName'), '[' ,parameters('workspacename'), ']')]",
            "location": "[parameters('workspaceRegionId')]",
            "tags": { },
            "type": "Microsoft.OperationsManagement/solutions",
            "apiVersion": "[variables('LogAnalyticsApiVersion-Solution')]",
            "dependsOn": [
                "[resourceId('Microsoft.OperationalInsights/workspaces/savedSearches', parameters('workspacename'), variables('MySearch').Name)]",
                "[resourceId('Microsoft.OperationalInsights/workspaces/savedSearches/schedules', parameters('workspacename'), variables('MySearch').Name, variables('MyAlert').Schedule.Name)]",
                "[resourceId('Microsoft.OperationalInsights/workspaces/savedSearches/schedules/actions', parameters('workspacename'), variables('MySearch').Name, variables('MyAlert').Schedule.Name, variables('MyAlert').Name)]"
            ],
            "properties": {
                "workspaceResourceId": "[resourceId('Microsoft.OperationalInsights/workspaces', parameters('workspacename'))]",
                "referencedResources": [
                ],
                "containedResources": [
                    "[resourceId('Microsoft.OperationalInsights/workspaces/savedSearches', parameters('workspacename'), variables('MySearch').Name)]",
                    "[resourceId('Microsoft.OperationalInsights/workspaces/savedSearches/schedules', parameters('workspacename'), variables('MySearch').Name, variables('MyAlert').Schedule.Name)]",
                    "[resourceId('Microsoft.OperationalInsights/workspaces/savedSearches/schedules/actions', parameters('workspacename'), variables('MySearch').Name, variables('MyAlert').Schedule.Name, variables('MyAlert').Name)]"
                ]
            },
            "plan": {
                "name": "[concat(variables('SolutionName'), '[' ,parameters('workspaceName'), ']')]",
                "Version": "[variables('SolutionVersion')]",
                "product": "[variables('ProductName')]",
                "publisher": "[variables('SolutionPublisher')]",
                "promotionCode": ""
            }
        },
        {
            "name": "[concat(parameters('workspaceName'), '/', variables('MySearch').Name)]",
            "type": "Microsoft.OperationalInsights/workspaces/savedSearches",
            "apiVersion": "[variables('LogAnalyticsApiVersion-Search')]",
            "dependsOn": [ ],
            "tags": { },
            "properties": {
                "etag": "*",
                "query": "[variables('MySearch').query]",
                "displayName": "[variables('MySearch').displayName]",
                "category": "[variables('MySearch').category]"
            }
        },
        {
            "name": "[concat(parameters('workspaceName'), '/', variables('MySearch').Name, '/', variables('MyAlert').Schedule.Name)]",
            "type": "Microsoft.OperationalInsights/workspaces/savedSearches/schedules/",
            "apiVersion": "[variables('LogAnalyticsApiVersion-Search')]",
            "dependsOn": [
                "[concat('Microsoft.OperationalInsights/workspaces/', parameters('workspaceName'), '/savedSearches/', variables('MySearch').Name)]"
            ],
            "properties": {
                "etag": "*",
                "interval": "[variables('MyAlert').Schedule.Interval]",
                "queryTimeSpan": "[variables('MyAlert').Schedule.TimeSpan]",
                "enabled": true
            }
        },
        {
            "name": "[concat(parameters('workspaceName'), '/', variables('MySearch').Name, '/', variables('MyAlert').Schedule.Name, '/', variables('MyAlert').Name)]",
            "type": "Microsoft.OperationalInsights/workspaces/savedSearches/schedules/actions",
            "apiVersion": "[variables('LogAnalyticsApiVersion-Search')]",
            "dependsOn": [
                "[concat('Microsoft.OperationalInsights/workspaces/', parameters('workspaceName'), '/savedSearches/', variables('MySearch').Name, '/schedules/', variables('MyAlert').Schedule.Name)]"
            ],
            "properties": {
                "etag": "*",
                "Type": "Alert",
                "Name": "[variables('MyAlert').DisplayName]",
                "Description": "[variables('MyAlert').Description]",
                "Severity": "[variables('MyAlert').Severity]",
                "Threshold": {
                    "Operator": "[variables('MyAlert').ThresholdOperator]",
                    "Value": "[variables('MyAlert').ThresholdValue]",
                    "MetricsTrigger": {
                        "TriggerCondition": "[variables('MyAlert').MetricsTrigger.TriggerCondition]",
                        "Operator": "[variables('MyAlert').MetricsTrigger.Operator]",
                        "Value": "[variables('MyAlert').MetricsTrigger.Value]"
                    }
                },
                "Throttling": {
                    "DurationInMinutes": "[variables('MyAlert').ThrottleMinutes]"
                },
                "AzNsNotification": {
                    "GroupIds": "[variables('MyAlert').AzNsNotification.GroupIds]",
                    "CustomEmailSubject": "[variables('MyAlert').AzNsNotification.CustomEmailSubject]"
                }
            }
        }
    ]
}