{
  "IsEncrypted": true,
  "Values": {
    "FUNCTIONS_WORKER_RUNTIME": "CfDJ8H4EUfyCEtZFulR8CULe9I9VQUlcEuRw0olI9jg+M8TLuox9qBJKQ//XTN97HSqCZ/L1ajUv3CwQNMvqtmgFRXeZePnOTcq1h7gbHuXhUQvfdHDaameyFFq727uqW37Qzg=="
  },
  "ConnectionStrings": {}
}