az monitor log-analytics workspace create -g oms-example -n log-analytics-36764


**************************************************************
RESOURCE GROUP
**************************************************************
/subscriptions/a4a8c613-6bb3-4a55-90cd-be8a39ef320e/resourceGroups/oms-example
**************************************************************
WORKSPACE
**************************************************************
/subscriptions/a4a8c613-6bb3-4a55-90cd-be8a39ef320e/resourcegroups/oms-example/providers/microsoft.operationalinsights/workspaces/log-analytics-36764