{
  "properties": {
    "lenses": {
      "0": {
        "order": 0,
        "parts": {
          "0": {
            "position": {
              "x": 0,
              "y": 0,
              "colSpan": 6,
              "rowSpan": 4
            },
            "metadata": {
              "inputs": [
                {
                  "name": "sharedTimeRange",
                  "isOptional": true
                },
                {
                  "name": "options",
                  "value": {
                    "chart": {
                      "metrics": [
                        {
                          "resourceMetadata": {
                            "id": "/subscriptions/a4a8c613-6bb3-4a55-90cd-be8a39ef320e/resourceGroups/grafana-eus-rg29695/providers/Microsoft.Compute/virtualMachines/test-vk"
                          },
                          "name": "Percentage CPU",
                          "aggregationType": 4,
                          "metricVisualization": {
                            "resourceDisplayName": "test-vk"
                          }
                        }
                      ],
                      "title": "CPU (average)",
                      "titleKind": 2,
                      "visualization": {
                        "chartType": 2
                      },
                      "openBladeOnClick": {
                        "openBlade": true
                      }
                    }
                  },
                  "isOptional": true
                }
              ],
              "type": "Extension/HubsExtension/PartType/MonitorChartPart",
              "settings": {
                "content": {
                  "options": {
                    "chart": {
                      "metrics": [
                        {
                          "resourceMetadata": {
                            "id": "/subscriptions/a4a8c613-6bb3-4a55-90cd-be8a39ef320e/resourceGroups/grafana-eus-rg29695/providers/Microsoft.Compute/virtualMachines/test-vk"
                          },
                          "name": "Percentage CPU",
                          "aggregationType": 4,
                          "metricVisualization": {
                            "resourceDisplayName": "test-vk"
                          }
                        }
                      ],
                      "title": "CPU (average)",
                      "titleKind": 2,
                      "visualization": {
                        "chartType": 2,
                        "disablePinning": true
                      },
                      "openBladeOnClick": {
                        "openBlade": true
                      }
                    }
                  }
                }
              },
              "filters": {
                "MsPortalFx_TimeRange": {
                  "model": {
                    "format": "local",
                    "granularity": "auto",
                    "relative": "60m"
                  }
                }
              }
            }
          },
          "1": {
            "position": {
              "x": 0,
              "y": 4,
              "colSpan": 6,
              "rowSpan": 4
            },
            "metadata": {
              "inputs": [
                {
                  "name": "sharedTimeRange",
                  "isOptional": true
                },
                {
                  "name": "options",
                  "value": {
                    "chart": {
                      "metrics": [
                        {
                          "resourceMetadata": {
                            "id": "/subscriptions/a4a8c613-6bb3-4a55-90cd-be8a39ef320e/resourceGroups/grafana-eus-rg29695/providers/Microsoft.Compute/virtualMachines/test-vk"
                          },
                          "name": "Network In Total",
                          "aggregationType": 1,
                          "metricVisualization": {
                            "resourceDisplayName": "test-vk"
                          }
                        },
                        {
                          "resourceMetadata": {
                            "id": "/subscriptions/a4a8c613-6bb3-4a55-90cd-be8a39ef320e/resourceGroups/grafana-eus-rg29695/providers/Microsoft.Compute/virtualMachines/test-vk"
                          },
                          "name": "Network Out Total",
                          "aggregationType": 1,
                          "metricVisualization": {
                            "resourceDisplayName": "test-vk"
                          }
                        }
                      ],
                      "title": "Network (total)",
                      "titleKind": 2,
                      "visualization": {
                        "chartType": 2
                      },
                      "openBladeOnClick": {
                        "openBlade": true
                      }
                    }
                  },
                  "isOptional": true
                }
              ],
              "type": "Extension/HubsExtension/PartType/MonitorChartPart",
              "settings": {
                "content": {
                  "options": {
                    "chart": {
                      "metrics": [
                        {
                          "resourceMetadata": {
                            "id": "/subscriptions/a4a8c613-6bb3-4a55-90cd-be8a39ef320e/resourceGroups/grafana-eus-rg29695/providers/Microsoft.Compute/virtualMachines/test-vk"
                          },
                          "name": "Network In Total",
                          "aggregationType": 1,
                          "metricVisualization": {
                            "resourceDisplayName": "test-vk"
                          }
                        },
                        {
                          "resourceMetadata": {
                            "id": "/subscriptions/a4a8c613-6bb3-4a55-90cd-be8a39ef320e/resourceGroups/grafana-eus-rg29695/providers/Microsoft.Compute/virtualMachines/test-vk"
                          },
                          "name": "Network Out Total",
                          "aggregationType": 1,
                          "metricVisualization": {
                            "resourceDisplayName": "test-vk"
                          }
                        }
                      ],
                      "title": "Network (total)",
                      "titleKind": 2,
                      "visualization": {
                        "chartType": 2,
                        "disablePinning": true
                      },
                      "openBladeOnClick": {
                        "openBlade": true
                      }
                    }
                  }
                }
              },
              "filters": {
                "MsPortalFx_TimeRange": {
                  "model": {
                    "format": "local",
                    "granularity": "auto",
                    "relative": "60m"
                  }
                }
              }
            }
          },
          "2": {
            "position": {
              "x": 0,
              "y": 8,
              "colSpan": 6,
              "rowSpan": 4
            },
            "metadata": {
              "inputs": [
                {
                  "name": "sharedTimeRange",
                  "isOptional": true
                },
                {
                  "name": "options",
                  "value": {
                    "chart": {
                      "metrics": [
                        {
                          "resourceMetadata": {
                            "id": "/subscriptions/a4a8c613-6bb3-4a55-90cd-be8a39ef320e/resourceGroups/grafana-eus-rg29695/providers/Microsoft.Compute/virtualMachines/test-vk"
                          },
                          "name": "Disk Read Bytes",
                          "aggregationType": 1,
                          "metricVisualization": {
                            "resourceDisplayName": "test-vk"
                          }
                        },
                        {
                          "resourceMetadata": {
                            "id": "/subscriptions/a4a8c613-6bb3-4a55-90cd-be8a39ef320e/resourceGroups/grafana-eus-rg29695/providers/Microsoft.Compute/virtualMachines/test-vk"
                          },
                          "name": "Disk Write Bytes",
                          "aggregationType": 1,
                          "metricVisualization": {
                            "resourceDisplayName": "test-vk"
                          }
                        }
                      ],
                      "title": "Disk bytes (total)",
                      "titleKind": 2,
                      "visualization": {
                        "chartType": 2
                      },
                      "openBladeOnClick": {
                        "openBlade": true
                      }
                    }
                  },
                  "isOptional": true
                }
              ],
              "type": "Extension/HubsExtension/PartType/MonitorChartPart",
              "settings": {
                "content": {
                  "options": {
                    "chart": {
                      "metrics": [
                        {
                          "resourceMetadata": {
                            "id": "/subscriptions/a4a8c613-6bb3-4a55-90cd-be8a39ef320e/resourceGroups/grafana-eus-rg29695/providers/Microsoft.Compute/virtualMachines/test-vk"
                          },
                          "name": "Disk Read Bytes",
                          "aggregationType": 1,
                          "metricVisualization": {
                            "resourceDisplayName": "test-vk"
                          }
                        },
                        {
                          "resourceMetadata": {
                            "id": "/subscriptions/a4a8c613-6bb3-4a55-90cd-be8a39ef320e/resourceGroups/grafana-eus-rg29695/providers/Microsoft.Compute/virtualMachines/test-vk"
                          },
                          "name": "Disk Write Bytes",
                          "aggregationType": 1,
                          "metricVisualization": {
                            "resourceDisplayName": "test-vk"
                          }
                        }
                      ],
                      "title": "Disk bytes (total)",
                      "titleKind": 2,
                      "visualization": {
                        "chartType": 2,
                        "disablePinning": true
                      },
                      "openBladeOnClick": {
                        "openBlade": true
                      }
                    }
                  }
                }
              },
              "filters": {
                "MsPortalFx_TimeRange": {
                  "model": {
                    "format": "local",
                    "granularity": "auto",
                    "relative": "60m"
                  }
                }
              }
            }
          },
          "3": {
            "position": {
              "x": 0,
              "y": 12,
              "colSpan": 6,
              "rowSpan": 4
            },
            "metadata": {
              "inputs": [
                {
                  "name": "sharedTimeRange",
                  "isOptional": true
                },
                {
                  "name": "options",
                  "value": {
                    "chart": {
                      "metrics": [
                        {
                          "resourceMetadata": {
                            "id": "/subscriptions/a4a8c613-6bb3-4a55-90cd-be8a39ef320e/resourceGroups/grafana-eus-rg29695/providers/Microsoft.Compute/virtualMachines/test-vk"
                          },
                          "name": "Disk Read Operations/Sec",
                          "aggregationType": 4,
                          "metricVisualization": {
                            "resourceDisplayName": "test-vk"
                          }
                        },
                        {
                          "resourceMetadata": {
                            "id": "/subscriptions/a4a8c613-6bb3-4a55-90cd-be8a39ef320e/resourceGroups/grafana-eus-rg29695/providers/Microsoft.Compute/virtualMachines/test-vk"
                          },
                          "name": "Disk Write Operations/Sec",
                          "aggregationType": 4,
                          "metricVisualization": {
                            "resourceDisplayName": "test-vk"
                          }
                        }
                      ],
                      "title": "Disk operations/sec (average)",
                      "titleKind": 2,
                      "visualization": {
                        "chartType": 2
                      },
                      "openBladeOnClick": {
                        "openBlade": true
                      }
                    }
                  },
                  "isOptional": true
                }
              ],
              "type": "Extension/HubsExtension/PartType/MonitorChartPart",
              "settings": {
                "content": {
                  "options": {
                    "chart": {
                      "metrics": [
                        {
                          "resourceMetadata": {
                            "id": "/subscriptions/a4a8c613-6bb3-4a55-90cd-be8a39ef320e/resourceGroups/grafana-eus-rg29695/providers/Microsoft.Compute/virtualMachines/test-vk"
                          },
                          "name": "Disk Read Operations/Sec",
                          "aggregationType": 4,
                          "metricVisualization": {
                            "resourceDisplayName": "test-vk"
                          }
                        },
                        {
                          "resourceMetadata": {
                            "id": "/subscriptions/a4a8c613-6bb3-4a55-90cd-be8a39ef320e/resourceGroups/grafana-eus-rg29695/providers/Microsoft.Compute/virtualMachines/test-vk"
                          },
                          "name": "Disk Write Operations/Sec",
                          "aggregationType": 4,
                          "metricVisualization": {
                            "resourceDisplayName": "test-vk"
                          }
                        }
                      ],
                      "title": "Disk operations/sec (average)",
                      "titleKind": 2,
                      "visualization": {
                        "chartType": 2,
                        "disablePinning": true
                      },
                      "openBladeOnClick": {
                        "openBlade": true
                      }
                    }
                  }
                }
              },
              "filters": {
                "MsPortalFx_TimeRange": {
                  "model": {
                    "format": "local",
                    "granularity": "auto",
                    "relative": "60m"
                  }
                }
              }
            }
          }
        }
      }
    },
    "metadata": {
      "model": {
        "timeRange": {
          "value": {
            "relative": {
              "duration": 24,
              "timeUnit": 1
            }
          },
          "type": "MsPortalFx.Composition.Configuration.ValueTypes.TimeRange"
        },
        "filterLocale": {
          "value": "en-us"
        },
        "filters": {
          "value": {
            "MsPortalFx_TimeRange": {
              "model": {
                "format": "utc",
                "granularity": "auto",
                "relative": "24h"
              },
              "displayCache": {
                "name": "UTC Time",
                "value": "Past 24 hours"
              },
              "filteredPartIds": [
                "StartboardPart-MonitorChartPart-c6ce67b2-1432-460b-a95f-f8420fe0416e",
                "StartboardPart-MonitorChartPart-c6ce67b2-1432-460b-a95f-f8420fe04178",
                "StartboardPart-MonitorChartPart-c6ce67b2-1432-460b-a95f-f8420fe04182",
                "StartboardPart-MonitorChartPart-c6ce67b2-1432-460b-a95f-f8420fe0418c"
              ]
            }
          }
        }
      }
    }
  },
  "name": "My Dashboard (3)",
  "type": "Microsoft.Portal/dashboards",
  "location": "INSERT LOCATION",
  "tags": {
    "hidden-title": "My Dashboard (3)"
  },
  "apiVersion": "2015-08-01-preview"
}